H -2.18744 -0.698793 -1.64067 
C -1.73853 -0.281564 -0.738472 
H 0.317599 -0.554338 -1.38643 
H -0.354383 1.03144 -1.77072 
H -2.3945 0.512111 -0.376698 
C -0.329095 0.243866 -1.01479 
H -1.72197 -1.06522 0.0206661 
O 0.187561 0.756174 0.194877 
H 1.04158 1.1349 0.0428296 
units angstrom
symmetry c1
