H 4.49695 1.61888 -0.47492 
H 3.75819 2.97964 -1.31907 
O 1.892 1.54887 -0.0172705 
H 4.39054 1.61242 -2.2333 
C 3.86376 1.89346 -1.32053 
H 2.6135 0.116845 -1.30208 
C 2.5003 1.20111 -1.24247 
H 1.86513 1.51343 -2.07403 
H 1.04158 1.1349 0.0428296 
units angstrom
symmetry c1
