H 3.95433 1.71673 -1.85602 
H 4.49442 0.734377 -0.498903 
C 4.10536 1.71555 -0.775052 
H 4.87 2.45638 -0.53872 
H 2.39874 2.98168 -0.351217 
C 2.79401 2.01079 -0.0455528 
O 1.87787 0.981302 -0.372225 
H 2.95441 2.04236 1.03431 
H 1.04158 1.1349 0.0428296 
units angstrom
symmetry c1
