H -0.209922 -0.0737745 1.55526 
H 1.71688 -0.482132 3.12775 
H -0.167015 1.64517 1.93527 
H 0.383533 0.293573 3.97784 
C 0.447446 0.746463 1.85178 
C 1.12352 0.431598 3.18895 
H 1.78677 1.24136 3.49617 
O 1.44927 0.938878 0.87426 
H 1.04158 1.1349 0.0428296 
units angstrom
symmetry c1
