H -0.360903 -0.665754 -2.67124 
H -0.833218 0.770651 -3.57353 
C -0.0847333 0.366421 -2.89024 
H -0.967082 1.26031 -1.12005 
C 0.00837261 1.19812 -1.60659 
H 0.325211 2.21721 -1.83784 
H 0.870328 0.346879 -3.41704 
O 0.937808 0.593477 -0.728406 
H 1.04158 1.1349 0.0428296 
units angstrom
symmetry c1
