H -2.52471 -0.859905 -0.0841425 
H -0.181237 -0.560831 -0.964769 
C -0.63131 0.186993 -0.307757 
H -1.0459 0.973476 -0.942548 
H -1.34532 -1.25391 1.16485 
C -1.73683 -0.444672 0.54613 
H -2.19629 0.28936 1.21046 
O 0.354493 0.727655 0.55311 
H 1.04158 1.1349 0.0428296 
units angstrom
symmetry c1
