O 1.62545 1.15196 -0.700553 
H 2.44606 2.15376 -3.03551 
H 1.28787 1.27083 -4.02674 
H 0.206517 2.05426 -1.88593 
H 2.5016 0.393775 -3.0967 
C 1.83069 1.25388 -3.08101 
H 0.242499 0.294547 -1.95524 
C 0.869278 1.18646 -1.89212 
H 1.04158 1.1349 0.0428296 
units angstrom
symmetry c1
