H 1.91134 -0.203931 1.65596 
H 3.19426 0.55713 0.719316 
H 3.39845 2.37315 2.43822 
H 2.05893 1.68697 3.35377 
H 3.57835 0.804558 3.21965 
C 2.87986 1.44332 2.67738 
C 2.37006 0.755145 1.40798 
O 1.41368 1.587 0.786536 
H 1.04158 1.1349 0.0428296 
units angstrom
symmetry c1
