O  1.94149 -0.00042 0.00746
H  1.35228  0.78192 -0.00584
H  2.51990  0.12993 0.76384
O  0.00042  1.94149 -0.00747
H -0.78192  1.35228 0.00583
H -0.12993  2.51990 -0.76385
O -0.00042 -1.94149 -0.00747
H 0.78192 -1.35228 0.00583
H 0.12993  -2.51990 -0.76385

units angstrom
symmetry c1

