H -2.47121 1.56337 -0.290169 
C -1.46463 1.6276 -0.678519 
H -2.03025 2.81355 -2.40069 
C -1.21669 2.33606 -1.87249 
C 0.909618 1.08417 -0.49612 
H 2.1669 1.85698 -2.07537 
C 1.1597 1.79237 -1.68864 
C 0.0973889 2.41603 -2.37642 
H 0.291581 2.95723 -3.29158 
H -0.59589 0.456905 0.925269 
C -0.402484 0.999307 0.0107787 
H 1.7247 0.608676 0.0310811 
units angstrom
symmetry c1
