C 0.446574 -0.126468 -0.103801 
H 0.228021 -0.896964 -0.829803 
H -1.26806 1.08993 -0.629967 
H 2.22703 -1.10765 0.643602 
C 1.57937 -0.24602 0.727419 
C -0.402484 0.999307 0.0107787 
H -0.765733 2.86545 1.04149 
C -0.117706 2.00451 0.956733 
C 1.85815 0.76137 1.6751 
H 2.72298 0.672972 2.31714 
H 1.23527 2.65706 2.51242 
C 1.01405 1.88623 1.78778 
units angstrom
symmetry c1
