H 2.76084 -0.714062 -1.50736 
C 1.88523 -0.239294 -1.08746 
C 0.966182 -0.997067 -0.331666 
H 1.13862 -2.05192 -0.170749 
H 2.36647 1.71863 -1.87473 
C 1.66247 1.1377 -1.29561 
H 0.346966 2.81033 -0.908455 
C 0.518043 1.7551 -0.748453 
H -0.881811 -0.959422 0.793805 
C -0.177615 -0.37854 0.214909 
H -1.27734 1.47418 0.431519 
C -0.402484 0.999307 0.0107787 
units angstrom
symmetry c1
