H -0.337885 -0.0777409 -0.0506982 
H 1.74616 1.30585 -0.0208349 
C -1.74566 3.04136 0.179653 
H -2.71392 3.52164 0.233018 
C -0.565008 3.81134 0.203049 
C -0.402484 0.999307 0.0107787 
H -2.55053 1.02777 0.0664502 
C -1.65587 1.63616 0.0806812 
H -0.61816 4.88722 0.286924 
C 0.775276 1.77965 0.0332936 
H 1.59993 3.76858 0.150321 
C 0.692727 3.18189 0.129932 
units angstrom
symmetry c1
