H 2.6149 -0.0855891 -2.21684 
C 1.69572 -0.228299 -0.249856 
H -1.15293 2.01527 -1.71664 
C -0.337227 1.40794 -1.33254 
H 0.810315 1.35846 -3.17464 
C 0.752404 1.01427 -2.13895 
C 1.76957 0.205337 -1.59465 
H 2.45456 -0.871724 0.193091 
H 0.554844 -0.16263 1.58503 
H -1.22496 1.30904 0.627602 
C -0.402484 0.999307 0.0107787 
C 0.597237 0.164036 0.542887 
units angstrom
symmetry c1
