H -0.388144 -0.0565882 -0.219049 
H 1.74901 1.22203 -0.0663321 
C -0.448068 3.76124 0.608464 
H -0.46385 4.81844 0.83343 
H -2.60101 3.54168 0.689698 
C -1.65707 3.03978 0.528529 
C -1.63072 1.66087 0.230944 
C -0.402484 0.999307 0.0107787 
H -2.55618 1.1066 0.167582 
C 0.805422 1.72378 0.097033 
H 1.7086 3.65578 0.457689 
C 0.782047 3.10283 0.394898 
units angstrom
symmetry c1
