H -0.337897 -0.063943 -0.186208 
H 1.63725 1.21917 -0.57675 
C 0.733096 1.75304 -0.252847 
H 1.61663 3.72873 -0.331525 
C 0.705512 3.15798 -0.0750975 
H -2.4502 0.992184 0.698935 
H -2.60864 3.45471 0.940901 
C -1.58861 1.62127 0.453902 
H -0.576154 4.81438 0.532376 
C -0.472942 3.78361 0.357175 
C -0.402484 0.999307 0.0107787 
C -1.64647 2.99742 0.636526 
units angstrom
symmetry c1
