H -0.439374 -0.377355 -3.12689 
C -0.912331 0.396302 -1.16158 
H -1.96565 0.164591 -1.23583 
C -0.04847 0.0925204 -2.23526 
H 2.88975 1.2316 -0.90107 
C 1.83682 0.998321 -0.974276 
H 1.98924 0.151659 -2.96152 
C 1.32735 0.389752 -2.14059 
H -1.06344 1.23478 0.832749 
C -0.402484 0.999307 0.0107787 
H 1.36137 1.76881 0.99233 
C 0.972074 1.30151 0.0988834 
units angstrom
symmetry c1
