H -0.86655 0.674851 -0.86365 
H 0.803245 2.38294 -1.5595 
C 1.22303 2.2973 -0.55583 
O 1.00098 1.00055 -3.61814e-06 
H 2.2944 2.49169 -0.628633 
H -0.486966 -0.32112 0.540273 
C -0.37773 0.676091 0.111689 
H -0.898886 1.37954 0.762842 
H 0.787305 3.07871 0.0690521 
units angstrom
symmetry c1
