H -0.937373 0.871038 -0.803781 
H 0.90182 2.30549 -1.60312 
O 1.00098 1.00055 -3.61814e-06 
C 1.33427 2.25511 -0.598606 
H 2.41909 2.32337 -0.667806 
H -0.575192 -0.149413 0.588071 
C -0.407925 0.838232 0.15978 
H -0.827138 1.57596 0.832793 
H 1.03759 3.09358 0.0171455 
units angstrom
symmetry c1
