H 1.25624 -1.06462 -0.0422339 
H -0.693794 0.198667 -0.913061 
C -0.402935 1.00745 -0.240659 
H -0.695229 1.94804 -0.7097 
O 1.00098 1.00055 -3.61814e-06 
H 2.52919 -0.149191 0.759543 
H 0.980038 -0.370658 1.56921 
C 1.45195 -0.204238 0.599682 
H -0.972312 0.901726 0.684564 
units angstrom
symmetry c1
