H 2.9546 0.737333 -0.689919 
O 1.00098 1.00055 -3.61814e-06 
C 2.32478 1.47865 -0.195897 
H 2.30567 2.36723 -0.828294 
H -0.0854573 -0.488611 0.933769 
H 1.51177 -0.991424 0.385556 
C 0.950271 -0.163766 0.820679 
H 2.79432 1.74701 0.751436 
H 1.34516 0.0222917 1.82096 
units angstrom
symmetry c1
