H -0.745691 0.628808 -1.06866 
C -0.385775 0.701579 -0.0411162 
H 1.04176 2.23973 -1.68338 
O 1.00098 1.00055 -3.61814e-06 
H 2.3921 2.42253 -0.569208 
H 0.813479 3.07823 -0.140579 
C 1.31765 2.24176 -0.627641 
H -0.568581 -0.257358 0.445213 
H -0.970139 1.45951 0.48214 
units angstrom
symmetry c1
