H 2.78663 -0.0863871 -0.0581059 
H 0.749149 2.80717 -0.965468 
H 2.3151 2.04504 -1.23539 
C 1.53776 2.22192 -0.490455 
O 1.00098 1.00055 -3.61814e-06 
H 1.52767 -0.741659 0.985922 
H 1.95861 2.82379 0.316719 
C 1.98536 0.183315 0.631813 
H 2.42695 0.684401 1.49481 
units angstrom
symmetry c1
