H -0.866872 1.04622 -0.926444 
O 1.00098 1.00055 -3.61814e-06 
H 1.17861 2.25408 -1.66663 
C 1.5355 2.1602 -0.639527 
H 1.27441 3.07207 -0.0999268 
H 2.62451 2.09737 -0.672013 
H -0.77141 0.108936 0.562272 
C -0.41925 1.01513 0.0680026 
H -0.780267 1.86977 0.642295 
units angstrom
symmetry c1
