H 2.95105 0.254752 -0.166574 
H 1.99337 2.19109 -1.3988 
O 1.00098 1.00055 -3.61814e-06 
C 1.25283 2.26758 -0.600919 
H 0.333154 2.65929 -1.03839 
H 1.92669 -0.547212 1.02188 
H 2.58126 1.0499 1.37106 
C 2.17182 0.419906 0.579668 
H 1.60683 2.99258 0.134128 
units angstrom
symmetry c1
