C 0.507701 0.0483913 -0.443879 
C -0.336198 0.999753 0.000194166 
H 1.58268 0.138069 -0.315085 
H 0.131631 -0.840005 -0.945693 
H 0.0284623 1.88034 0.508672 
H -1.40579 0.895179 -0.126887 
units angstrom
symmetry c1
