C -1.52469 0.557169 -0.448705 
C -0.336198 0.999753 0.000194166 
H -1.96099 0.926711 -1.36551 
H -2.07067 -0.195308 0.100046 
H 0.212728 1.75567 -0.546104 
H 0.0948922 0.627456 0.920802 
units angstrom
symmetry c1
