C -1.04924 0.324849 -0.925385 
C -0.336198 0.999753 0.000194166 
H -0.984557 0.56551 -1.97777 
H -1.72502 -0.466234 -0.639727 
H 0.334058 1.79472 -0.284577 
H -0.417097 0.76021 1.05128 
units angstrom
symmetry c1
