C -0.530971 1.35899 1.27747 
C -0.336198 0.999753 0.000194166 
H -0.63294 2.3961 1.5696 
H -0.617327 0.60765 2.04915 
H -0.254354 1.74833 -0.778871 
H -0.251322 -0.0345442 -0.300957 
units angstrom
symmetry c1
