C -0.428058 -0.179447 -0.641173 
C -0.336198 0.999753 0.000194166 
H -1.01495 -0.985642 -0.22721 
H 0.0587685 -0.340952 -1.59393 
H -0.829228 1.16292 0.951188 
H 0.245522 1.81341 -0.416399 
units angstrom
symmetry c1
