C -0.247762 -0.0181724 -0.893291 
C -0.336198 0.999753 0.000194166 
H -0.163579 0.160177 -1.95057 
H -0.226536 -1.04486 -0.570759 
H -0.330927 2.01051 -0.358512 
H -0.405987 0.843891 1.05769 
units angstrom
symmetry c1
