C 0.488094 1.26923 -1.02459 
C -0.336198 0.999753 0.000194166 
H 0.760781 0.503497 -1.74563 
H 0.872023 2.2601 -1.18134 
H -0.722677 0.00597291 0.181675 
H -0.587608 1.77573 0.708016 
units angstrom
symmetry c1
