C 0.0702743 0.126347 -0.940143 
C -0.336198 0.999753 0.000194166 
H 0.710167 -0.70602 -0.688659 
H -0.232412 0.220492 -1.9754 
H -0.0299236 0.908678 1.034 
H -0.973906 1.83372 -0.263478 
units angstrom
symmetry c1
