C -0.175586 -0.308949 -0.241463 
C -0.336198 0.999753 0.000194166 
H -0.117766 -0.693422 -1.2503 
H -0.111633 -1.02693 0.565688 
H -0.41575 1.71495 -0.805755 
H -0.401857 1.37335 1.0119 
units angstrom
symmetry c1
