C 0.88772 1.5367 -0.149272 
C -0.336198 0.999753 0.000194166 
H 1.05818 2.60069 0.00888946 
H 1.74056 0.951257 -0.460531 
H -1.18334 1.60673 0.292622 
H -0.511289 -0.0556243 -0.162712 
units angstrom
symmetry c1
