C -0.859356 0.313873 -1.02847 
C -0.336198 0.999753 0.000194166 
H -1.90468 0.394727 -1.28234 
H -0.254115 -0.364613 -1.61678 
H -0.940935 1.67239 0.597187 
H 0.711874 0.900282 0.254687 
units angstrom
symmetry c1
