H -1.36224 1.32363 -0.365438 
C 1.91772 0.345544 -0.395352 
H 2.73328 0.163422 -1.0812 
H 0.521829 0.917367 -1.94447 
C 0.665748 0.770845 -0.883253 
H 3.06 -0.174154 1.36558 
H -1.03282 0.990179 2.08239 
C -0.216592 0.809409 1.39684 
C -0.402484 0.999307 0.0107787 
C 2.10075 0.153192 0.99004 
H 1.18216 0.241292 2.94703 
C 1.0361 0.385557 1.88572 
units angstrom
symmetry c1
