C 2.11972 -0.270094 -0.0136443 
H 3.08628 -0.753903 -0.0245912 
H 2.60093 1.0896 -1.62926 
C 1.84609 0.773103 -0.923066 
C 0.585291 1.40358 -0.911615 
H 0.374997 2.20012 -1.61116 
C -0.127363 -0.0483746 0.918815 
H -0.884197 -0.362926 1.62366 
H 1.34868 -1.47571 1.61044 
C 1.13511 -0.679957 0.910461 
H -1.36918 1.48247 0.0162996 
C -0.402484 0.999307 0.0107787 
units angstrom
symmetry c1
