H -2.32677 1.99519 -0.0869864 
C -1.36443 1.86635 -0.562408 
H -1.80946 3.22354 -2.19336 
C -1.07289 2.56562 -1.75266 
H 2.11272 1.41162 -2.2666 
C 0.854605 0.8412 -0.603828 
C 1.14957 1.53849 -1.79261 
H 1.58979 0.183231 -0.162347 
C 0.187302 2.3982 -2.36501 
H 0.414985 2.92772 -3.27926 
H -0.628129 0.466869 0.923771 
C -0.402484 0.999307 0.0107787 
units angstrom
symmetry c1
