C 1.44382 -0.606429 -0.0547586 
H 2.80304 -0.386181 -1.75909 
C 1.90753 -0.0111682 -1.25483 
H -0.489895 2.41322 -1.64366 
H 1.54155 1.51687 -2.77066 
C 1.20374 1.06898 -1.82705 
C 0.0494682 1.56532 -1.20142 
H -0.0694 -0.531309 1.5046 
C 0.289679 -0.0891313 0.570724 
H 1.98353 -1.45131 0.389009 
H -1.29775 1.37159 0.493899 
C -0.402484 0.999307 0.0107787 
units angstrom
symmetry c1
