H -0.909126 0.547851 -0.830336 
H -0.0347455 2.8722 -1.00622 
C 0.0939053 2.31486 -0.0889761 
H -0.611547 -0.737834 1.29132 
C -0.231888 0.271254 1.21231 
C -0.402484 0.999307 0.0107787 
H 0.556995 0.305632 3.23024 
H 1.13646 3.9118 0.930143 
C 0.757483 2.90262 1.00731 
H 1.42799 2.63218 3.04652 
C 0.923664 2.17707 2.20575 
C 0.431605 0.859193 2.31003 
units angstrom
symmetry c1
