H -0.523287 0.0577756 -0.505789 
H -2.24427 3.59698 1.26186 
C -1.37626 3.00379 1.01124 
H -2.52388 1.42549 0.0820725 
C -1.53433 1.77363 0.342373 
C -0.402484 0.999307 0.0107787 
C -0.0876591 3.46091 1.35332 
H 0.030418 4.40395 1.86831 
H 1.75288 0.86479 0.0995091 
C 0.88621 1.4588 0.353118 
H 2.03435 3.03942 1.28557 
C 1.04582 2.6891 1.02381 
units angstrom
symmetry c1
