H -0.891003 -1.05587 -0.458635 
C -0.382627 -0.161821 -0.791013 
H 0.315299 -1.04849 -2.63668 
C 0.298882 -0.157187 -2.02536 
H 1.47875 1.01089 -3.41113 
C 0.958067 1.00943 -2.46386 
H 1.44645 3.06759 -2.00044 
C 0.940566 2.17237 -1.66675 
C 0.257636 2.16506 -0.43259 
H -0.924842 0.997692 0.956867 
C -0.402484 0.999307 0.0107787 
H 0.240239 3.05712 0.17744 
units angstrom
symmetry c1
