H -2.54656 1.175 -0.234252 
C -1.58025 1.51325 -0.580758 
H -2.40712 2.84672 -2.07509 
C -1.50367 2.4626 -1.62193 
H -0.177357 3.62664 -2.8726 
C -0.241908 2.90278 -2.07252 
C 0.855397 1.44709 -0.442513 
H 1.90182 2.73515 -1.82819 
C 0.935513 2.39639 -1.48228 
H -0.465955 0.272945 0.808499 
C -0.402484 0.999307 0.0107787 
H 1.75899 1.06085 0.00765396 
units angstrom
symmetry c1
