C 2.00475 -0.0893588 -0.96981 
H 2.93011 -0.507085 -1.34041 
H -0.541501 1.9893 -1.90988 
C 0.0429387 1.32308 -1.29078 
H 1.58736 1.02718 -2.78072 
C 1.24686 0.778939 -1.78487 
C 1.56271 -0.412545 0.330356 
H 2.14677 -1.07695 0.95166 
H 0.0192484 -0.116794 1.81616 
H -1.32618 1.41705 0.385273 
C -0.402484 0.999307 0.0107787 
C 0.359839 0.132691 0.821128 
units angstrom
symmetry c1
