C 0.998505 0.999338 -0.00111652 
H 0.287659 1.40854 -0.719781 
H 2.00346 1.20787 -0.37093 
H 0.867739 -0.0834291 0.0175655 
H -0.223322 1.40166 1.77391 
H 1.49082 1.19992 2.12363 
C 0.780954 1.60824 1.40115 
H 0.911342 2.69107 1.38782 
units angstrom
symmetry c1
