C 0.998505 0.999338 -0.00111652 
H 0.111413 0.934267 -0.631974 
H 1.48643 0.0240324 -0.0123444 
H 1.68074 1.71878 -0.455701 
H -0.0564849 0.700709 1.89734 
H 1.51102 1.48352 2.07443 
C 0.625097 1.41852 1.43896 
H 0.137767 2.39417 1.45369 
units angstrom
symmetry c1
