C 0.998505 0.999338 -0.00111652 
H 1.93899 0.501475 -0.241381 
H 0.670215 1.5384 -0.890558 
H 0.257717 0.228263 0.215475 
H 1.91162 2.73099 0.9876 
H 1.49966 1.42166 2.09138 
H 0.232808 2.45908 1.44525 
C 1.17072 1.95832 1.20025 
units angstrom
symmetry c1
