C -0.499226 0.129008 -1.00815 
C -0.336198 0.999753 0.000194166 
H -1.48091 -0.126449 -1.39072 
H 0.355269 -0.332617 -1.48791 
H -1.16825 1.46866 0.491349 
H 0.649293 1.23213 0.350189 
units angstrom
symmetry c1
