H 2.31102 1.21541 -1.73644 
C 2.06354 1.75383 -0.820615 
H 2.98532 1.87853 -0.251077 
C 0.998505 0.999338 -0.00111652 
H 1.71372 2.74733 -1.10503 
H 0.0780767 0.875537 -0.572871 
H 0.752347 1.53892 0.914491 
H 1.35204 0.00665032 0.280988 
units angstrom
symmetry c1
