H 2.03098 -0.0952448 -1.59386 
C 0.998505 0.999338 -0.00111652 
H 0.0850199 0.40427 -0.0300086 
H 1.13377 1.30663 -2.16724 
H 2.6637 1.52619 -1.32567 
C 1.74997 0.930108 -1.34963 
H 0.718844 2.02623 0.237863 
H 1.61627 0.623639 0.815436 
units angstrom
symmetry c1
