C -1.10174 1.9625 -0.535603 
C -0.336198 0.999753 0.000194166 
H -1.89864 1.7381 -1.23181 
H -0.942075 3.00188 -0.286583 
H -0.484163 -0.0392016 -0.254313 
H 0.461734 1.24245 0.690164 
units angstrom
symmetry c1
