C 0.782787 1.29014 0.686643 
C -0.336198 0.999753 0.000194166 
H 1.70802 0.77022 0.483761 
H 0.79145 2.04973 1.45423 
H -0.341408 0.242636 -0.768599 
H -1.26295 1.52166 0.194466 
units angstrom
symmetry c1
