C -0.221327 1.78318 1.08599 
C -0.336198 0.999753 0.000194166 
H -0.938877 1.79693 1.92429 
H 0.638437 2.44437 1.14306 
H -1.17105 0.337286 -0.166835 
H 0.42481 1.0575 -0.783312 
units angstrom
symmetry c1
