C 0.865788 1.111 0.586497 
C -0.336198 0.999753 0.000194166 
H 1.00349 0.866159 1.62521 
H 1.75875 1.38762 0.0182536 
H -1.21337 0.661494 0.536775 
H -0.4314 1.21432 -1.06041 
units angstrom
symmetry c1
