C 0.998505 0.999338 -0.00111652 
H 0.797557 1.03765 -1.07269 
H 2.70557 2.37923 -0.0431822 
H 1.1661 3.17268 0.273166 
H 1.94968 2.23684 1.54047 
C 1.74847 2.27059 0.468389 
H 0.0426526 0.89647 0.514424 
H 1.58148 0.0992206 0.197071 
units angstrom
symmetry c1
