C -1.51375 0.341656 -0.0355166 
C -0.336198 0.999753 0.000194166 
H -2.16683 0.372361 0.812464 
H -1.82242 -0.237039 -0.888816 
H -0.0453281 1.58165 0.865205 
H 0.334467 0.973558 -0.846478 
units angstrom
symmetry c1
