C 0.998505 0.999338 -0.00111652 
H 0.0993078 1.24883 -0.565805 
H 2.1875 2.69995 -0.71598 
H 1.54136 0.237154 -0.562027 
H 2.77458 2.01132 0.79391 
H 1.33165 3.02011 0.788473 
C 1.87354 2.25511 0.229502 
H 0.684682 0.558294 0.946075 
units angstrom
symmetry c1
