C 0.0659651 1.56387 1.15186 
C -0.336198 0.999753 0.000194166 
H 0.144051 0.994457 2.06883 
H 0.310674 2.61767 1.19919 
H -0.588453 -0.0524133 -0.055742 
H -0.424697 1.57257 -0.914851 
units angstrom
symmetry c1
