H 0.30919 -0.706099 -1.19353 
C 0.229812 -0.330652 -0.172481 
C 0.998505 0.999338 -0.00111652 
H 2.05817 0.873698 -0.226845 
H 0.606613 1.76701 -0.669104 
H -0.831226 -0.209695 0.0512554 
H 0.619943 -1.10057 0.494317 
H 0.915909 1.37167 1.02073 
units angstrom
symmetry c1
