C 0.998505 0.999338 -0.00111652 
H 0.60642 0.0438055 -0.353022 
H 0.660642 1.77457 -0.690112 
H 2.0868 0.954268 -0.0599812 
H -0.55436 1.34052 1.50628 
H 0.924745 2.25261 1.79493 
H 0.872379 0.526525 2.13278 
C 0.53448 1.29551 1.44203 
units angstrom
symmetry c1
