C 0.386683 1.76741 -0.829528 
C -0.336198 0.999753 0.000194166 
H 1.18993 1.33455 -1.40686 
H 0.176017 2.82485 -0.955025 
H -0.142464 -0.0593305 0.109921 
H -1.15664 1.42155 0.567045 
units angstrom
symmetry c1
