H -0.86575 -0.126503 -0.301462 
H 0.585123 -1.04174 -0.689879 
C 0.998505 0.999338 -0.00111652 
H 1.01878 1.45024 -0.994071 
H 0.145275 -0.761976 0.991261 
C 0.167445 -0.307275 0.000224126 
H 2.03015 0.811915 0.29984 
H 0.57781 1.73163 0.689114 
units angstrom
symmetry c1
