C 0.884682 -0.059215 -1.11017 
H 0.947856 -1.10185 -0.69888 
H -0.0593001 0.0169974 -1.65522 
C 0.998505 0.999338 -0.00111652 
H 1.64072 0.0420573 -1.84977 
H 0.923227 2.016 -0.40423 
H 0.180277 0.867982 0.7242 
H 1.96117 0.903469 0.515074 
units angstrom
symmetry c1
