C -0.264842 -0.306901 0.26414 
C -0.336198 0.999753 0.000194166 
H -0.553143 -0.728289 1.21681 
H 0.0663061 -1.02021 -0.508431 
H -0.660516 1.71672 0.743039 
H -0.052793 1.38402 -0.963425 
units angstrom
symmetry c1
