C 0.998505 0.999338 -0.00111652 
H 1.78887 0.785426 -0.721926 
H 0.100987 1.26523 -0.560851 
H 2.31001 1.88078 1.52244 
H 0.624555 2.36023 1.68394 
C 1.41231 2.1424 0.960635 
H 1.62386 3.06354 0.415113 
H 0.78866 0.0798128 0.547575 
units angstrom
symmetry c1
