H 1.31084 -0.0573974 -0.187997 
H 0.0522134 1.15713 -0.443466 
H 1.75877 1.63127 -0.487097 
H 1.84986 1.07642 1.77284 
O 0.992269 1.22431 1.40024 
C 1.03244 0.980422 0.00468642 
units angstrom
symmetry c1
