H 0.8956 0.856806 -1.07275 
H 0.278666 -0.759812 0.482335 
O 0.144683 0.142971 0.735127 
H 2.0684 0.74464 0.254484 
H 0.852801 2.02787 0.257081 
C 1.03244 0.980422 0.00468642 
units angstrom
symmetry c1
