H -0.297283 1.21872 -1.40142 
H 1.73718 1.72378 -0.375247 
O 0.210292 0.500708 -1.05057 
H 1.60498 0.157492 0.437597 
H 0.431121 1.43675 0.793863 
C 1.03244 0.980422 0.00468642 
units angstrom
symmetry c1
