H 2.01128 0.507958 -0.101092 
H 0.706976 1.3229 -0.980087 
H -0.72971 0.466073 0.65555 
H 1.13676 1.84827 0.659388 
O 0.113103 0.0478181 0.552253 
C 1.03244 0.980422 0.00468642 
units angstrom
symmetry c1
