H 0.770293 0.542802 -1.87566 
O 0.575508 1.2717 -1.30391 
H 0.53095 0.0953645 0.400184 
H 2.10874 0.799418 0.00634404 
H 0.828188 1.81897 0.672679 
C 1.03244 0.980422 0.00468642 
units angstrom
symmetry c1
