H 1.93369 0.675116 -0.530819 
H 0.725338 1.95937 -0.369627 
O 0.00690964 0.0187558 -0.195071 
H -0.776899 0.30185 0.254019 
H 1.27664 1.0758 1.06553 
C 1.03244 0.980422 0.00468642 
units angstrom
symmetry c1
