H 0.935657 1.91273 -0.55703 
H 1.90093 0.442885 -0.380628 
H 0.145415 0.367931 -0.172971 
H 0.454167 1.71583 1.71638 
O 1.20584 1.24288 1.39002 
C 1.03244 0.980422 0.00468642 
units angstrom
symmetry c1
