H 0.849982 0.516759 -0.967029 
H 0.733765 2.02885 -0.0536056 
H 0.57633 -0.588839 1.06731 
O 0.312336 0.320063 1.03054 
H 2.10352 0.945715 0.209693 
C 1.03244 0.980422 0.00468642 
units angstrom
symmetry c1
