H 0.0978207 1.08545 -0.555402 
H 1.68675 0.314585 -0.551506 
H 1.83642 2.63401 -0.63454 
H 0.811587 0.519717 0.974989 
O 1.6546 2.2376 0.199998 
C 1.03244 0.980422 0.00468642 
units angstrom
symmetry c1
