H -0.678914 0.364612 -0.691787 
O -0.0154447 0.031051 -0.10482 
H 1.45156 1.20098 -0.979377 
H 1.83292 0.584856 0.633668 
H 0.675415 1.9127 0.446956 
C 1.03244 0.980422 0.00468642 
units angstrom
symmetry c1
