H 1.33912 0.0427537 -0.461774 
H 2.19479 2.1208 -1.07449 
O 1.27183 2.07514 -0.866734 
H -0.0306317 0.912038 0.243719 
H 1.58236 1.10518 0.939041 
C 1.03244 0.980422 0.00468642 
units angstrom
symmetry c1
