H 1.58071 0.475924 -0.791542 
H 0.47135 1.81403 -0.426057 
H -0.467054 -0.266027 0.0380325 
O 0.163396 0.0706024 0.658869 
H 1.75566 1.38368 0.713357 
C 1.03244 0.980422 0.00468642 
units angstrom
symmetry c1
