O -0.0219482 0.031952 -0.0663151 
H 1.41394 1.19545 -0.995435 
H -0.355149 -0.132933 0.804198 
H 1.85467 0.592473 0.60841 
H 0.684462 1.9158 0.447491 
C 1.03244 0.980422 0.00468642 
units angstrom
symmetry c1
