H 1.48715 0.112779 -0.478318 
H 0.128089 1.24759 -0.545975 
H 1.7332 1.81599 -0.0578584 
H 0.33035 1.44495 1.76547 
O 0.728586 0.687235 1.36092 
C 1.03244 0.980422 0.00468642 
units angstrom
symmetry c1
