H 2.03646 0.838331 -0.399099 
H 0.452555 0.0766197 -0.192166 
H 0.559206 1.81176 -0.521625 
H 1.59234 2.01701 1.55731 
O 1.08982 1.23129 1.39792 
C 1.03244 0.980422 0.00468642 
units angstrom
symmetry c1
