H 1.21031 1.23403 -1.04375 
H -0.041534 0.832059 0.146719 
H 2.4268 2.16176 0.692217 
O 1.50774 2.01406 0.861868 
H 1.5371 0.0380323 0.229341 
C 1.03244 0.980422 0.00468642 
units angstrom
symmetry c1
